…
Problem 2
---------

Load the instacart data and do some data cleaning.

``` r
data(instacart)
instacart_data = instacart %>% 
  janitor::clean_names() 

instacart_data
```

    ## # A tibble: 1,384,617 x 15
    ##    order_id product_id add_to_cart_ord… reordered user_id eval_set
    ##       <int>      <int>            <int>     <int>   <int> <chr>   
    ##  1        1      49302                1         1  112108 train   
    ##  2        1      11109                2         1  112108 train   
    ##  3        1      10246                3         0  112108 train   
    ##  4        1      49683                4         0  112108 train   
    ##  5        1      43633                5         1  112108 train   
    ##  6        1      13176                6         0  112108 train   
    ##  7        1      47209                7         0  112108 train   
    ##  8        1      22035                8         1  112108 train   
    ##  9       36      39612                1         0   79431 train   
    ## 10       36      19660                2         1   79431 train   
    ## # ... with 1,384,607 more rows, and 9 more variables: order_number <int>,
    ## #   order_dow <int>, order_hour_of_day <int>,
    ## #   days_since_prior_order <int>, product_name <chr>, aisle_id <int>,
    ## #   department_id <int>, aisle <chr>, department <chr>
…
------------------------------------------------------------------------

Find out how many aisles are there, and which aisles are the most items ordered from.

``` r
instacart_data %>% 
  group_by(aisle_id, aisle) %>% 
  summarise( n = n_distinct(product_id)) %>% 
  arrange(desc(n))
```

    ## # A tibble: 134 x 3
    ## # Groups:   aisle_id [134]
    ##    aisle_id aisle                   n
    ##       <int> <chr>               <int>
    ##  1       45 candy chocolate       943
    ##  2      120 yogurt                911
    ##  3      100 missing               905
    ##  4       37 ice cream ice         901
    ##  5      107 chips pretzels        844
    ##  6       21 packaged cheese       791
    ##  7       38 frozen meals          757
    ##  8        3 energy granola bars   690
    ##  9       94 tea                   674
    ## 10       61 cookies cakes         654
    ## # ... with 124 more rows
…
Problem 3
---------

Load the NY NOAA data and do some data cleaning.

``` r
data(ny_noaa)
ny_noaa = ny_noaa %>% 
  janitor::clean_names() %>% 
  mutate(tmax = as.integer(tmax), tmin = as.integer((tmin)))

ny_noaa
```

    ## # A tibble: 2,595,176 x 7
    ##    id          date        prcp  snow  snwd  tmax  tmin
    ##    <chr>       <date>     <int> <int> <int> <int> <int>
    ##  1 US1NYAB0001 2007-11-01    NA    NA    NA    NA    NA
    ##  2 US1NYAB0001 2007-11-02    NA    NA    NA    NA    NA
    ##  3 US1NYAB0001 2007-11-03    NA    NA    NA    NA    NA
    ##  4 US1NYAB0001 2007-11-04    NA    NA    NA    NA    NA
    ##  5 US1NYAB0001 2007-11-05    NA    NA    NA    NA    NA
    ##  6 US1NYAB0001 2007-11-06    NA    NA    NA    NA    NA
    ##  7 US1NYAB0001 2007-11-07    NA    NA    NA    NA    NA
    ##  8 US1NYAB0001 2007-11-08    NA    NA    NA    NA    NA
    ##  9 US1NYAB0001 2007-11-09    NA    NA    NA    NA    NA
    ## 10 US1NYAB0001 2007-11-10    NA    NA    NA    NA    NA
    ## # ... with 2,595,166 more rows
…
Create separate variables for year, month, and day. Ensure variables are given in reasonable units.

``` r
ny_noaa = 
  ny_noaa %>% 
  separate(date, c("year", "month", "day"), sep = "-") %>% 
  mutate(prcp = prcp/10, tmax = tmax/10, tmin = tmin/10, 
         year = as.integer(year), month = as.integer(month),
              day = as.integer(day))

ny_noaa
```

    ## # A tibble: 2,595,176 x 9
    ##    id           year month   day  prcp  snow  snwd  tmax  tmin
    ##    <chr>       <int> <int> <int> <dbl> <int> <int> <dbl> <dbl>
    ##  1 US1NYAB0001  2007    11     1    NA    NA    NA    NA    NA
    ##  2 US1NYAB0001  2007    11     2    NA    NA    NA    NA    NA
    ##  3 US1NYAB0001  2007    11     3    NA    NA    NA    NA    NA
    ##  4 US1NYAB0001  2007    11     4    NA    NA    NA    NA    NA
    ##  5 US1NYAB0001  2007    11     5    NA    NA    NA    NA    NA
    ##  6 US1NYAB0001  2007    11     6    NA    NA    NA    NA    NA
    ##  7 US1NYAB0001  2007    11     7    NA    NA    NA    NA    NA
    ##  8 US1NYAB0001  2007    11     8    NA    NA    NA    NA    NA
    ##  9 US1NYAB0001  2007    11     9    NA    NA    NA    NA    NA
    ## 10 US1NYAB0001  2007    11    10    NA    NA    NA    NA    NA
    ## # ... with 2,595,166 more rows
…
